{
  "users": [
    {
      "firstname": "Tshwarelo",
      "lastname": "Mabotja",
      "id": 1,
      "subjectid": 1
    },
    {
      "firstname": "Mpho",
      "lastname": "Moreti",
      "id": 2,
      "subjectid": 2
    },
    {
      "firstname": "Amo",
      "lastname": "Mabotja",
      "id": 3,
      "subjectid": 1
    },
    {
      "firstname": "Mokgadi",
      "subjectid": 1,
      "lastname": "Mabotja",
      "id": 5
    }
  ],
  "subjects": [
    {
      "name": "Automation",
      "id": 1
    },
    {
      "name": "DevOps",
      "id": 2
    }
  ]
}